module gitlab.com/rileyrohloff/gitlab-mr-labeler

go 1.22.0

require (
	github.com/rs/zerolog v1.32.0
	github.com/stretchr/testify v1.9.0
	gopkg.in/yaml.v3 v3.0.1
)

require (
	github.com/davecgh/go-spew v1.1.1 // indirect
	github.com/mattn/go-colorable v0.1.13 // indirect
	github.com/mattn/go-isatty v0.0.20 // indirect
	github.com/pmezard/go-difflib v1.0.0 // indirect
	github.com/stretchr/objx v0.5.2 // indirect
	golang.org/x/sys v0.17.0 // indirect
)
